digraph queryGraph {
	rankdir=LR
	node0 [label="?entry" color=red fontcolor=red shape=ellipse]
	node1 [label="?iso" color=blue fontcolor=blue shape=ellipse]
	node0 -> node1 [label=":isoform" style=solid]
	node2 [label="[]" color=black shape=box]
	node1 -> node2 [label=":keyword" style=solid]
	node3 [label="cv:KW-0597" color=black fontcolor=black shape=box]
	node2 -> node3 [label=":term" style=solid]
	node4 [label="?loc" color=blue fontcolor=blue shape=ellipse]
	node1 -> node4 [label=":cellularComponent" style=solid]
	node5 [label="[]" color=black shape=box]
	node4 -> node5 [label=":term" style=solid]
	node6 [label="?cytoloc" color=blue fontcolor=blue shape=ellipse]
	node5 -> node6 [label=":childOf" style=solid]
	node4 -> node8 [arrowhead=none color=grey style=dotted]
	subgraph cluster_7 {
		style=dashed
		color=grey
		label="FILTER NOT EXISTS"
		node8 [label="?loc" color=grey fontcolor=grey shape=ellipse]
		node9 [label="?negev" color=blue fontcolor=blue shape=ellipse]
		node8 -> node9 [label=":negativeEvidence" color=grey fontcolor=grey style=solid]
	}
}
